<svg id="fc97655c4e8932bfb1bf8e6553f41570" xmlns="http://www.w3.org/2000/svg" width="180.339" height="53.5" viewBox="0 0 180.339 53.5">
  <path id="Path_1827" data-name="Path 1827" d="M173.934,53.5H6.35A6.332,6.332,0,0,1,.032,47.167V6.321A6.327,6.327,0,0,1,6.35,0H173.934a6.44,6.44,0,0,1,6.436,6.321V47.167a6.441,6.441,0,0,1-6.436,6.332Z" transform="translate(-0.032)" fill="#a6a6a6"/>
  <path id="Path_1828" data-name="Path 1828" d="M179.285,47.4a5.118,5.118,0,0,1-5.122,5.123H6.578A5.124,5.124,0,0,1,1.451,47.4V6.55A5.13,5.13,0,0,1,6.576,1.42H174.162a5.125,5.125,0,0,1,5.122,5.129V47.4Z" transform="translate(-0.26 -0.228)"/>
  <path id="Path_1829" data-name="Path 1829" d="M43.553,28.055a7.768,7.768,0,0,1,3.69-6.5,7.93,7.93,0,0,0-6.248-3.384c-2.628-.279-5.175,1.574-6.516,1.574s-3.427-1.547-5.647-1.5a8.312,8.312,0,0,0-7,4.3c-3.025,5.247-.768,12.959,2.145,17.185,1.447,2.079,3.148,4.4,5.363,4.3s2.965-1.374,5.583-1.374,3.363,1.374,5.626,1.332,3.8-2.089,5.2-4.184a17.2,17.2,0,0,0,2.376-4.833,7.519,7.519,0,0,1-4.569-6.906ZM39.278,15.381a7.639,7.639,0,0,0,1.743-5.467A7.762,7.762,0,0,0,36,12.513,7.292,7.292,0,0,0,34.2,17.782a6.426,6.426,0,0,0,5.073-2.4Zm35.686,28.35H71.929L70.266,38.5H64.49l-1.609,5.23H59.926l5.723-17.8h3.534Zm-5.181-7.421-1.517-4.64q-.237-.714-.9-3.351h-.054q-.262,1.133-.842,3.351L65,36.315Zm19.892.848a7.31,7.31,0,0,1-1.764,5.177,5.161,5.161,0,0,1-3.931,1.687A3.934,3.934,0,0,1,80.338,42.2h-.054v6.762H77.437V35.122q0-2.057-.107-4.227h2.5l.161,2.036h.054a5.065,5.065,0,0,1,8.109-.505,7.08,7.08,0,0,1,1.517,4.732Zm-2.9.1a5.29,5.29,0,0,0-.842-3.088A2.916,2.916,0,0,0,83.454,32.9a2.957,2.957,0,0,0-1.91.7,3.222,3.222,0,0,0-1.12,1.826,3.764,3.764,0,0,0-.134.87v2.148a3.434,3.434,0,0,0,.858,2.363,2.84,2.84,0,0,0,2.226.967,2.916,2.916,0,0,0,2.5-1.241,5.467,5.467,0,0,0,.906-3.276h0Zm17.644-.1a7.3,7.3,0,0,1-1.771,5.177,5.161,5.161,0,0,1-3.9,1.687A3.919,3.919,0,0,1,95.108,42.2h-.054v6.762H92.206V35.122q0-2.057-.107-4.227h2.5l.161,2.036h.054a5.065,5.065,0,0,1,8.109-.505,7.1,7.1,0,0,1,1.49,4.732Zm-2.9.1a5.29,5.29,0,0,0-.848-3.088A2.911,2.911,0,0,0,98.208,32.9a2.963,2.963,0,0,0-1.915.7,3.222,3.222,0,0,0-1.131,1.826,3.811,3.811,0,0,0-.134.87v2.148a3.44,3.44,0,0,0,.853,2.363,2.846,2.846,0,0,0,2.231.967,2.916,2.916,0,0,0,2.5-1.241,5.467,5.467,0,0,0,.9-3.276ZM120.9,38.742a4.745,4.745,0,0,1-1.578,3.695,6.976,6.976,0,0,1-4.827,1.557,8.464,8.464,0,0,1-4.607-1.106l.649-2.38a7.8,7.8,0,0,0,4.118,1.139,3.889,3.889,0,0,0,2.5-.725,2.375,2.375,0,0,0,.884-1.949,2.483,2.483,0,0,0-.74-1.826,6.862,6.862,0,0,0-2.45-1.374q-4.666-1.746-4.666-5.1a4.519,4.519,0,0,1,1.635-3.6,6.429,6.429,0,0,1,4.349-1.4,8.62,8.62,0,0,1,4.017.848l-.713,2.326a6.991,6.991,0,0,0-3.4-.816,3.44,3.44,0,0,0-2.323.736,2.117,2.117,0,0,0-.713,1.611,2.176,2.176,0,0,0,.816,1.745,9.25,9.25,0,0,0,2.579,1.369,8.772,8.772,0,0,1,3.373,2.148,4.525,4.525,0,0,1,1.089,3.1Zm9.412-5.7h-3.148v6.23q0,2.379,1.661,2.379a5.056,5.056,0,0,0,1.267-.134l.08,2.148a6.428,6.428,0,0,1-2.215.317,3.414,3.414,0,0,1-2.633-1.031,5.059,5.059,0,0,1-.948-3.459V33.044h-1.872V30.9h1.871V28.543l2.789-.843v3.2h3.137l.011,2.143Zm14.163,4.173a7.047,7.047,0,0,1-1.689,4.833,6.024,6.024,0,0,1-4.7,1.976,5.73,5.73,0,0,1-4.489-1.875,6.831,6.831,0,0,1-1.673-4.726,6.987,6.987,0,0,1,1.727-4.887,5.97,5.97,0,0,1,4.655-1.9,5.847,5.847,0,0,1,4.536,1.874A6.751,6.751,0,0,1,144.48,37.212Zm-2.955.091a5.779,5.779,0,0,0-.762-3.046,2.809,2.809,0,0,0-2.558-1.514,2.853,2.853,0,0,0-2.612,1.536,5.914,5.914,0,0,0-.761,3.1,5.769,5.769,0,0,0,.761,3.045,2.912,2.912,0,0,0,5.144,0,5.8,5.8,0,0,0,.788-3.12Zm12.212-3.9a4.938,4.938,0,0,0-.9-.081,2.68,2.68,0,0,0-2.322,1.139A4.3,4.3,0,0,0,149.806,37v6.735h-2.848V34.94q0-2.219-.107-4.039h2.478l.1,2.454h.08a4.388,4.388,0,0,1,1.421-2.036,3.44,3.44,0,0,1,2.059-.688,4.6,4.6,0,0,1,.713.055l.033,2.717Zm12.731,3.3a6.694,6.694,0,0,1-.1,1.295h-8.544a3.724,3.724,0,0,0,1.239,2.905,4.228,4.228,0,0,0,2.794.9,9.439,9.439,0,0,0,3.459-.607l.445,1.981a10.676,10.676,0,0,1-4.29.795,6.213,6.213,0,0,1-4.682-1.755,6.492,6.492,0,0,1-1.732-4.716,7.359,7.359,0,0,1,1.609-4.833,5.457,5.457,0,0,1,4.478-2.073,4.776,4.776,0,0,1,4.194,2.057,6.951,6.951,0,0,1,1.131,4.055Zm-2.713-.741a3.877,3.877,0,0,0-.537-2.191,2.487,2.487,0,0,0-2.263-1.187,2.68,2.68,0,0,0-2.268,1.161,4.257,4.257,0,0,0-.864,2.218ZM68.823,14.983a4.394,4.394,0,0,1-1.41,3.555,5.617,5.617,0,0,1-3.717,1.1,17.226,17.226,0,0,1-2.048-.1V10.944a15.087,15.087,0,0,1,2.413-.182,5.19,5.19,0,0,1,3.459,1,4.041,4.041,0,0,1,1.3,3.222Zm-1.474.038a3.225,3.225,0,0,0-.783-2.347,3.215,3.215,0,0,0-2.365-.816,5.886,5.886,0,0,0-1.126.092v6.535a7.388,7.388,0,0,0,.944.038,3.306,3.306,0,0,0,2.477-.9A3.586,3.586,0,0,0,67.349,15.021Zm9.3,1.338a3.461,3.461,0,0,1-.831,2.39,2.959,2.959,0,0,1-2.307.961,2.814,2.814,0,0,1-2.2-.929,3.359,3.359,0,0,1-.82-2.32,3.43,3.43,0,0,1,.848-2.4,2.942,2.942,0,0,1,2.284-.935,2.878,2.878,0,0,1,2.231.918,3.332,3.332,0,0,1,.8,2.315Zm-1.453.042a2.855,2.855,0,0,0-.375-1.5,1.384,1.384,0,0,0-1.255-.752,1.4,1.4,0,0,0-1.281.752,2.893,2.893,0,0,0-.376,1.52,2.855,2.855,0,0,0,.376,1.5,1.41,1.41,0,0,0,1.27.752,1.394,1.394,0,0,0,1.255-.768,2.84,2.84,0,0,0,.391-1.5h-.005Zm11.949-3.147-1.969,6.31H83.894l-.816-2.739a20.515,20.515,0,0,1-.5-2.035,14.93,14.93,0,0,1-.5,2.035L81.2,19.564H79.9l-1.85-6.3h1.384l.713,3q.257,1.074.428,2.025a20.049,20.049,0,0,1,.537-2.009l.9-3.007h1.18l.858,2.943q.311,1.075.5,2.079h.039a19.971,19.971,0,0,1,.428-2.079l.762-2.943h1.374l-.011-.011Zm7.256,6.31H93V15.95q0-1.67-1.271-1.67a1.265,1.265,0,0,0-1.014.456,1.613,1.613,0,0,0-.386,1.074V19.57h-1.4V15.059q0-.833-.049-1.8h1.228l.065.988h.038a2.024,2.024,0,0,1,.723-.763,2.362,2.362,0,0,1,1.271-.354,2.01,2.01,0,0,1,1.464.569,2.778,2.778,0,0,1,.724,2.089l.005,3.78Zm3.862,0h-1.4v-9.2h1.4Zm8.243-3.205a3.461,3.461,0,0,1-.831,2.39,2.959,2.959,0,0,1-2.307.961,2.809,2.809,0,0,1-2.209-.929,3.359,3.359,0,0,1-.8-2.32,3.43,3.43,0,0,1,.848-2.4,2.937,2.937,0,0,1,2.285-.935,2.878,2.878,0,0,1,2.231.923,3.339,3.339,0,0,1,.789,2.31Zm-1.453.042a2.855,2.855,0,0,0-.375-1.5,1.378,1.378,0,0,0-1.255-.752,1.4,1.4,0,0,0-1.281.752,2.892,2.892,0,0,0-.376,1.52,2.855,2.855,0,0,0,.376,1.5,1.41,1.41,0,0,0,1.27.752,1.394,1.394,0,0,0,1.234-.763,2.823,2.823,0,0,0,.408-1.509Zm8.227,3.163h-1.254l-.1-.725h-.037a2.144,2.144,0,0,1-1.84.87,1.9,1.9,0,0,1-1.437-.569,1.79,1.79,0,0,1-.493-1.284,1.961,1.961,0,0,1,.965-1.761,5.009,5.009,0,0,1,2.715-.6v-.118q0-1.246-1.309-1.246a2.925,2.925,0,0,0-1.64.467l-.285-.919a4.034,4.034,0,0,1,2.146-.537q2.467,0,2.473,2.61v2.321a9.8,9.8,0,0,0,.1,1.487Zm-1.453-2.148v-.994q-2.316-.038-2.316,1.273a.947.947,0,0,0,.268.741.978.978,0,0,0,.686.248,1.412,1.412,0,0,0,.858-.29,1.2,1.2,0,0,0,.51-.994l-.006.017Zm9.407,2.148h-1.244l-.065-1.015h-.038a2.091,2.091,0,0,1-2.022,1.155,2.369,2.369,0,0,1-1.892-.9,3.488,3.488,0,0,1-.751-2.32,3.657,3.657,0,0,1,.815-2.475,2.509,2.509,0,0,1,1.942-.881,1.887,1.887,0,0,1,1.775.854V10.364h1.4v7.519q.031.9.08,1.681Zm-1.448-2.685V15.8a2.064,2.064,0,0,0-.038-.44,1.611,1.611,0,0,0-.5-.849,1.377,1.377,0,0,0-.94-.344,1.437,1.437,0,0,0-1.234.623,2.688,2.688,0,0,0-.45,1.611,2.5,2.5,0,0,0,.429,1.52,1.444,1.444,0,0,0,1.223.623,1.345,1.345,0,0,0,1.105-.537,1.736,1.736,0,0,0,.4-1.112Zm13.418-.52a3.461,3.461,0,0,1-.832,2.39,2.959,2.959,0,0,1-2.306.961,2.814,2.814,0,0,1-2.209-.929,3.359,3.359,0,0,1-.821-2.32,3.429,3.429,0,0,1,.848-2.4,2.942,2.942,0,0,1,2.29-.935,2.872,2.872,0,0,1,2.225.918,3.332,3.332,0,0,1,.8,2.315Zm-1.448.042a2.855,2.855,0,0,0-.375-1.5,1.384,1.384,0,0,0-1.255-.752,1.4,1.4,0,0,0-1.281.752,2.892,2.892,0,0,0-.376,1.52,2.855,2.855,0,0,0,.376,1.5,1.432,1.432,0,0,0,2.526,0,2.847,2.847,0,0,0,.386-1.52Zm8.973,3.163h-1.4V15.95q0-1.67-1.27-1.67a1.26,1.26,0,0,0-1.009.456,1.613,1.613,0,0,0-.386,1.074V19.57h-1.4V15.059q0-.833-.049-1.8h1.228l.065.988h.037a2.051,2.051,0,0,1,.724-.763,2.369,2.369,0,0,1,1.271-.354,2,2,0,0,1,1.464.569,2.778,2.778,0,0,1,.724,2.089Zm9.423-5.257H148.62v3.061c0,.779.274,1.166.816,1.166a2.459,2.459,0,0,0,.622-.065l.038,1.074a3.138,3.138,0,0,1-1.072.155,1.672,1.672,0,0,1-1.292-.5,2.473,2.473,0,0,1-.467-1.7V14.307h-.948V13.233h.922V12.1l1.373-.414v1.567h1.539v1.053Zm7.412,5.257h-1.4V15.978q0-1.7-1.266-1.7a1.336,1.336,0,0,0-1.335.983,1.769,1.769,0,0,0-.065.505V19.56h-1.4v-9.2h1.4v3.8a2.145,2.145,0,0,1,1.893-1.036,1.95,1.95,0,0,1,1.437.569,2.876,2.876,0,0,1,.713,2.116l.022,3.753Zm7.642-3.469a3.342,3.342,0,0,1-.054.634h-4.194a1.838,1.838,0,0,0,.607,1.429,2.078,2.078,0,0,0,1.373.44,4.634,4.634,0,0,0,1.7-.3l.22.972a5.265,5.265,0,0,1-2.113.387,3.049,3.049,0,0,1-2.323-.837,3.182,3.182,0,0,1-.837-2.315,3.612,3.612,0,0,1,.778-2.373,2.68,2.68,0,0,1,2.2-1.01,2.343,2.343,0,0,1,2.06,1.01A3.366,3.366,0,0,1,165.2,16.095Zm-1.335-.36a1.887,1.887,0,0,0-.274-1.074,1.223,1.223,0,0,0-1.116-.585,1.329,1.329,0,0,0-1.115.569,2.15,2.15,0,0,0-.413,1.074l2.918.017Z" transform="translate(-3.308 -1.595)" fill="#fff"/>
</svg>
